[37.424343, -122.170534]	6	2011-08-28 20:20:00	Roller blading break with boys at Stanford (@ Jamba Juice) http://t.co/9vdzLcD
[37.428933139999998, -122.16981411]	6	2011-08-28 20:59:47	I'm at Stanford University (450 Serra Mall, Stanford) http://t.co/6HF71WW
[37.426615699999999, -122.17277527]	6	2011-08-28 21:39:06	Here's a pic I took @ Stanford University http://t.co/Qe07giD
[37.433650999999998, -122.17557499999999]	0	2011-08-29 14:26:14	Oh Monday....u r here again... (@ Stanford Medical Center) http://t.co/pxdm1CS
[37.424612000000003, -122.168813]	0	2011-08-29 16:54:50	I'm at US Post Office - Stanford (531 Lasuen Mall, Stanford) http://t.co/E45IyUZ
[37.427314350000003, -122.16472864000001]	0	2011-08-29 18:02:54	I'm at Encina Hall (616 Serra St, Stanford University, Stanford) http://t.co/g9ucR8G
[47.447212999999998, -122.26197500000001]	0	2011-08-29 19:30:55	Foooood! (@ Stanford's Restaurant And Bar) http://t.co/AOpgKXc
[47.447212999999998, -122.26197500000001]	0	2011-08-29 19:33:34	Lunch! (@ Stanford's Restaurant And Bar w/ @ericababyy) http://t.co/38CKsdq
[37.424930000000003, -122.13905200000001]	0	2011-08-29 20:03:30	First day as entrepreneur in residence at @seelabs Stanford students startup accelerator  @ AOL-Stanford http://t.co/AIGYjKv
[38.003092520000003, -121.36848539]	0	2011-08-29 21:17:00	“@jsnell: "What does a Cal fan do if he's helping a Stanford fan out of a ravine?" http://t.co/g1h6jOZ" Throw dirt @ him, so he claim out.
[37.428933139999998, -122.16981411]	0	2011-08-29 23:15:23	I'm at Stanford University (450 Serra Mall, Stanford) http://t.co/GZdV94p
[33.653765200000002, -117.8415315]	1	2011-08-30 01:45:48	I'm at Tree House 2.13 (616 Stanford, Irvine) http://t.co/wlJDua3
[33.653905999999999, -117.839883]	1	2011-08-30 01:46:18	I'm at Stanford Apts http://t.co/UHZDd2S
[33.651816599999997, -117.8392599]	1	2011-08-30 01:46:39	I'm at Stanford Court (Stanford, Irvine, CA, Irvine) http://t.co/lxX75Ay
[33.654173329999999, -117.84265995]	1	2011-08-30 01:46:56	I'm at Stanford Park http://t.co/R9FWibz
[34.103871220000002, -118.36597552000001]	1	2011-08-30 02:06:36	Haha my brother getting courted by Stanford, "don't do it dude, you're not enough of a tool!"
[37.427467710000002, -122.17041492]	1	2011-08-30 04:36:37	I'm at The Quad (Palm Drive, Stanford) http://t.co/9dOJ1gb
[45.530908940000003, -122.68394264]	1	2011-08-30 05:09:06	@AMGronda Hurry up and get to @Stanford
[37.428694579999998, -122.17083335]	1	2011-08-30 09:56:47	I'm at Jordan Hall (450 Serra Mall, Building 420, Stanford) http://t.co/ntVieCP
[37.425840270000002, -122.16888391000001]	6	2011-08-28 22:46:28	Here's a pic I took @ Stanford Clock Tower http://t.co/CRB54nW
[37.426615699999999, -122.17277527]	6	2011-08-28 22:52:32	Here's a pic I took @ Stanford University http://t.co/Z0bW5Ci
[37.426615699999999, -122.17277527]	6	2011-08-28 22:52:58	Here's a pic I took @ Stanford University http://t.co/bkaCvRd
[37.426615699999999, -122.17277527]	6	2011-08-28 22:55:12	Here's a pic I took @ Stanford University http://t.co/1kahSgR
[37.426615699999999, -122.17277527]	6	2011-08-28 23:01:54	Here's a pic I took @ Stanford University http://t.co/CZVb7jF
[37.426615699999999, -122.17277527]	6	2011-08-28 23:04:24	Here's a pic I took @ Stanford University http://t.co/cP1h8Xl
[37.426615699999999, -122.17277527]	6	2011-08-28 23:06:24	Here's a pic I took @ Stanford University http://t.co/hCkETjg
[37.426615699999999, -122.17277527]	6	2011-08-28 23:08:24	Here's a pic I took @ Stanford University http://t.co/miR7s9P
[37.42958307, -122.16893433]	6	2011-08-28 23:12:12	I'm at Stanford Oval in CA http://t.co/TkAayw0
[37.4273132, -122.17029622]	6	2011-08-28 23:13:29	Here's a pic I took @ Stanford Memorial Church http://t.co/Yxv4jiE
[37.428933139999998, -122.16981411]	6	2011-08-28 23:19:49	Helluva campus. (@ Stanford University w/ 3 others) http://t.co/SMSRvfc
[39.192983669999997, -76.814925669999994]	1	2011-08-30 14:04:37	Working all day! Come visits! (@ Stanford Grill) http://t.co/OMqLlRs
[37.434113029999999, -122.17723846]	1	2011-08-30 14:39:40	I'm at Stanford University Medical Center (300 Pasteur Dr, at Sand Hill Rd, Stanford) http://t.co/1lkMBnl
[33.754852159999999, -88.113291259999997]	1	2011-08-30 14:43:54	I'm at Stanford Motors, Inc. (9631 Hwy 18 West, Vernon) http://t.co/qKWgtQv
[37.790944000000003, -122.408733]	1	2011-08-30 15:13:15	Cook-Hot Side Line PM - The Stanford Court... - #SanFrancisco , CA (http://t.co/b5pROoH) Get Chef Jobs #Chef #jobs #job #GetAllJobs
[37.433650999999998, -122.17557499999999]	1	2011-08-30 16:10:39	It's gna be a drag today.... :-/ (@ Stanford Medical Center) http://t.co/sMQ0wXi
[37.424100000000003, -122.166]	1	2011-08-30 17:15:25	Where is Stanford on the map? Play the game at http://t.co/Wwp3tdT #Stanford
[37.424100000000003, -122.166]	1	2011-08-30 17:20:07	Where is Stanford on the map? Play the game at http://t.co/Wwp3tdT #Stanford
[37.424100000000003, -122.166]	1	2011-08-30 17:25:07	Where is Stanford on the map? Play the game at http://t.co/Wwp3tdT #Stanford
[37.424100000000003, -122.166]	1	2011-08-30 17:30:23	Where is Stanford on the map? Play the game at http://t.co/Wwp3tdT #Stanford
[37.424100000000003, -122.166]	1	2011-08-30 17:35:09	Where is Stanford on the map? Play the game at http://t.co/Wwp3tdT #Stanford
[37.424100000000003, -122.166]	1	2011-08-30 17:40:10	Where is Stanford on the map? Play the game at http://t.co/Wwp3tdT #Stanford
[37.424100000000003, -122.166]	1	2011-08-30 17:45:10	Where is Stanford on the map? Play the game at http://t.co/Wwp3tdT #Stanford
[37.424890859999998, -122.16896199999999]	1	2011-08-30 17:55:00	I'm at Stanford University Bookstore (519 Lasuen Mall, Stanford) http://t.co/aOmKpig
[37.422967999999997, -122.16764499999999]	1	2011-08-30 19:33:03	I'm at The Market at Munger (554 Salvatierra Walk, Stanford, CA) http://t.co/SDzf7gg
[37.420198749999997, -122.20225763000001]	1	2011-08-30 20:36:17	got a #slac tshirt. now somebody stops me, please @ Stanford Guest House http://t.co/xf54kG5
[37.428933139999998, -122.16981411]	2	2011-08-31 03:02:26	ㅎㅎ 밤늦게 남의 학교 와서.. (@ Stanford University) [pic]: http://t.co/7wxchfi
[36.892945169999997, -119.74790537]	2	2011-08-31 03:09:24	@todd_grisham Are you really gone with WWE or are you doing announcing like Scott Stanford, two jobs?
[37.427041709999997, -122.17037200999999]	2	2011-08-31 03:11:09	교회 하나도 다르군.. 리조트라고 해도 믿겠다.. (@ Stanford Memorial Church) [pic]: http://t.co/gPQaImS
[47.447212999999998, -122.26197500000001]	2	2011-08-31 03:42:59	I'm at Stanford's Restaurant And Bar (17380 Southcenter Pkwy, Seattle) http://t.co/NKwB9cl
[37.428694579999998, -122.17083335]	2	2011-08-31 04:01:38	I'm at Jordan Hall (450 Serra Mall, Building 420, Stanford) http://t.co/Mw9ZlQ3
[37.430006599999999, -122.173421]	2	2011-08-31 04:02:10	I'm at Gates Computer Science Building (353 Serra Mall, at North-South Axis, Stanford) http://t.co/LQbE2u6
[37.427467710000002, -122.17041492]	2	2011-08-31 04:02:54	I'm at The Quad (Palm Drive, Stanford) http://t.co/HL9z6yG
[37.434726410000003, -122.16101646]	2	2011-08-31 04:03:36	I'm at Stanford Stadium (625 Nelson Rd., at Galvez St., Stanford) http://t.co/aNxHSUT
[37.428933139999998, -122.16981411]	2	2011-08-31 08:31:29	I'm at Stanford University (450 Serra Mall, Stanford) http://t.co/hdv2sn5
[37.430006599999999, -122.173421]	2	2011-08-31 08:33:29	I'm at Gates Computer Science Building (353 Serra Mall, at North-South Axis, Stanford) http://t.co/QV9zEP1
[46.8782, -110.379]	2	2011-08-31 10:01:28	A new postcard in CardFed - Montana - http://t.co/ZxgPsKL #travel #postcard  #america montana nationalpark poster stanford @cardfed
[29.758199999999999, -95.389099999999999]	0	2011-08-29 01:00:16	TRAFFIC HAZARD/NON URGENT @ 1955 W LAMAR ST and BLK STANFORD Sun Aug 28 19:57:00 -0500 2011 #hpd
[38.781438170000001, -121.265657]	0	2011-08-29 01:06:47	I'm at 76 (6700 Five Star Blvd., at Stanford Ranch Rd., Rocklin) http://t.co/StSGRaG
[37.433650999999998, -122.17557499999999]	2	2011-08-31 14:27:17	I'm at Stanford Medical Center (300 Pasteur Drive, Palo Alto) http://t.co/msfwZTa
[38.933657220000001, -77.077509820000003]	2	2011-08-31 16:49:14	@jimtankersley Start with Stanford and Oregon?
[37.424899940000003, -122.168938]	2	2011-08-31 17:32:05	I'm at Stanford Bookstore Cafe (White memorial plaza, Stanford) http://t.co/DOWrCrQ
[37.286977499999999, -121.94866740000001]	3	2011-09-01 02:44:32	Bargains on College Football Tix, Candles and More: Deal: $30 for two tickets to Stanford Cardinal vs. San Jose ... http://t.co/AXhPd84
[19.853519649999999, -90.52579154]	3	2011-09-01 02:58:11	O en. #stanford
[34.039280679999997, -118.473609]	3	2011-09-01 03:51:49	I'm at South Bar & Restaurant (3001 Wilshire Blvd, at Stanford St, Santa Monica) w/ 6 others http://t.co/XA5EG8J
[37.424612000000003, -122.168813]	3	2011-09-01 17:16:25	I'm at US Post Office - Stanford (531 Lasuen Mall, Stanford) http://t.co/sCQ58gb
[37.424890859999998, -122.16896199999999]	3	2011-09-01 17:19:08	I'm at Stanford University Bookstore (519 Lasuen Mall, Stanford) http://t.co/woXaju6
[37.422967999999997, -122.16764499999999]	3	2011-09-01 19:34:42	I'm at The Market at Munger (554 Salvatierra Walk, Stanford, CA) http://t.co/Pt4tYrU
[32.722202330000002, -117.16160417]	3	2011-09-01 20:03:28	I'm at CWSL Dwight E. Stanford Reading Room (San Diego) http://t.co/VvE1jhK
[37.424100000000003, -122.166]	3	2011-09-01 20:15:12	Someone just missed Stanford by 336 miles! http://t.co/Wwp3tdT
[37.424100000000003, -122.166]	3	2011-09-01 20:20:05	Where is Stanford on the map? Play the game at http://t.co/Wwp3tdT #Stanford
[36.021195599999999, -86.687903500000004]	3	2011-09-01 21:48:46	I'm at Stanford Village (Stanford Village Dr, Barnes Rd, Antioch) http://t.co/Okekv65
[37.328646800000001, -121.8705253]	3	2011-09-01 22:51:34	@AdrianCox11 Stanford bro lol ..
[37.434726410000003, -122.16101646]	4	2011-09-02 08:55:52	I'm at Stanford Stadium (625 Nelson Rd., at Galvez St., Stanford) http://t.co/cV342eZ
[37.420198749999997, -122.20225763000001]	4	2011-09-02 14:04:53	Waiting @ Stanford Guest House http://t.co/xgosAv3
[28.613347109999999, -81.288756660000004]	0	2011-08-29 02:32:54	@ashertime @riflesforwatie Stanford needs to narrate an AMC miniseries on the Civil War … Ken Burns style
[37.445050960000003, -122.16270625999999]	0	2011-08-29 03:00:17	Double Feature.   @ Stanford Theatre http://t.co/HP3rL0Y
[37.424100000000003, -122.166]	0	2011-08-29 03:55:28	Where is Stanford on the map? Play the game at http://t.co/Wwp3tdT #Stanford
[37.424100000000003, -122.166]	0	2011-08-29 04:05:26	Where is Stanford on the map? Play the game at http://t.co/Wwp3tdT #Stanford
[37.424100000000003, -122.166]	0	2011-08-29 04:25:06	Where is Stanford on the map? Play the game at http://t.co/Wwp3tdT #Stanford
[45.562683, -122.63551099999999]	0	2011-08-29 12:31:39	Steve Jobs' 2005 Stanford Commencement Address http://t.co/EXThmLJ
[37.791651000000002, -122.409549]	4	2011-09-02 16:05:26	Good morning SF.  @ The Stanford Court Hotel http://t.co/BD1w9ea
[37.791651000000002, -122.409549]	4	2011-09-02 16:06:34	Another good morning SF.  @ The Stanford Court Hotel http://t.co/nbuH8IU
[37.434726410000003, -122.16101646]	4	2011-09-02 16:21:08	All Right Now 39247 (@ Stanford Stadium) http://t.co/yknyWdv
[37.436038609999997, -122.17622590000001]	4	2011-09-02 17:23:23	I'm at Stanford Cancer Center in Palo Alto, CA http://t.co/gPYk72a
[37.428694579999998, -122.17083335]	3	2011-09-08 16:02:33	I'm at Jordan Hall (450 Serra Mall, Building 420, Stanford) http://t.co/Zt898Gy
[37.432852169999997, -122.17085480999999]	3	2011-09-08 17:21:43	I'm at Cool Café (346 Lomita Dr, inside the Cantor Arts Center, Stanford) http://t.co/ab6hBGg
[35.081713469999997, -106.61964260000001]	3	2011-09-08 18:20:16	I'm at Woodward Hall- University Of New Mexico (199 Stanford Dr NE, Albuquerque) http://t.co/KVzzQ2Q
[37.424612000000003, -122.168813]	3	2011-09-08 19:29:01	I'm at US Post Office - Stanford (531 Lasuen Mall, Stanford) http://t.co/rr7eKQS
[37.424100000000003, -122.166]	3	2011-09-08 20:05:33	Where is Stanford on the map? Play the game at http://t.co/Wwp3tdT #Stanford
[37.424100000000003, -122.166]	3	2011-09-08 20:10:26	Where is Stanford on the map? Play the game at http://t.co/Wwp3tdT #Stanford
[37.424100000000003, -122.166]	3	2011-09-08 20:15:44	Where is Stanford on the map? Play the game at http://t.co/Wwp3tdT #Stanford
[37.424100000000003, -122.166]	3	2011-09-08 20:20:37	Where is Stanford on the map? Play the game at http://t.co/Wwp3tdT #Stanford
[37.443522999999999, -122.1706324]	3	2011-09-08 21:25:45	지름신과 혈투중 (@ Bloomingdale's Stanford) http://t.co/bk0j8oT
[37.428933139999998, -122.16981411]	3	2011-09-08 21:27:58	I'm at Stanford University (450 Serra Mall, Stanford) http://t.co/o1VyevB
[38.782806999999998, -121.2664176]	3	2011-09-08 21:48:06	I'm at Togo's (6706 Stanford Ranch Rd #D1, at Fairway Dr, Roseville) http://t.co/yeV2njj
[37.4432543, -122.17151112000001]	3	2011-09-08 23:09:50	I'm at Apple Store, Stanford in Palo Alto, CA http://t.co/cmMjojM
[29.734197330000001, -95.389351840000003]	4	2011-09-09 00:01:25	I'm at Chapultepec Lupita (813 Richmond, btw Stanford & Roseland, Houston) http://t.co/mKrPpKC
[37.425521779999997, -122.13933496999999]	4	2011-09-09 00:11:06	At StartX demo day to see what Stanford's brightest entrepreneurs are up to. #startx
[37.425541860000003, -122.13889764]	4	2011-09-09 00:48:05	@StartXStanford #demoday has started! Tune in to the live stream at StartX.Stanford.edu
[37.410255290000002, -122.16108084]	4	2011-09-09 01:19:37	Where are my TNT folks? (@ Stanford Dish Trail) http://t.co/S8FybB8
[33.650538330000003, -117.839023]	4	2011-09-09 02:14:21	I'm at Gen Grill - University Center (4143 Campus Dr #C196, btw Bridge & Stanford, Irvine) http://t.co/51QO7kz
[37.433650999999998, -122.17557499999999]	4	2011-09-09 03:00:35	I'm at Stanford Medical Center (300 Pasteur Drive, Palo Alto) http://t.co/RcHaJWw
[40.712661400000002, -73.834214399999993]	4	2011-09-09 05:47:50	RT @spacecommerce: Invitation to the MIT/Stanford Venture Lab Event http://srs.gs/16YO
[37.430006599999999, -122.173421]	4	2011-09-09 06:02:12	I'm at Gates Computer Science Building (353 Serra Mall, at North-South Axis, Stanford) http://t.co/nkt6APR
[37.433650999999998, -122.17557499999999]	4	2011-09-09 14:00:26	Oh...HAPPY FRIDAY!!! (@ Stanford Medical Center) http://t.co/xQDwgwe
[37.428933139999998, -122.16981411]	4	2011-09-02 20:05:16	Taking nik in he's gonna take a tour of the surgical theater & more (@ Stanford University) http://t.co/ndfKTfT
[33.650393340000001, -117.83749133000001]	4	2011-09-02 21:16:12	I'm at Trader Joe's (4225 Campus Dr, at Stanford, Irvine) http://t.co/pobCH3T
[37.429387560000002, -122.17354524]	4	2011-09-02 22:46:51	I'm at Bytes Café (350 Serra Mall, Stanford) http://t.co/FkMGf2I
[38.991950629999998, -76.949778600000002]	4	2011-09-02 22:59:35	Off to #UMD v #Stanford men's soccer game.
[37.422209000000002, -122.166509]	4	2011-09-02 23:38:38	I'm at Munger Hall Stanford (Salvatierra Walk, Palo Alto) http://t.co/0XQ8yro
[38.987935319999998, -76.949588680000005]	4	2011-09-02 23:38:52	UMD scores against stanford in 20 seconds.  LOL
[35.420833330000001, -80.749722219999995]	4	2011-09-02 23:54:40	Maryland stuns Stanford in the first 10 minutes! 2-0 #collegesoccer
[37.446210809999997, -122.1613371]	4	2011-09-02 23:58:32	Stanford  http://t.co/SOrw2Sm http://t.co/CCfw5v8 http://t.co/TX3VP3A
[38.987494470000001, -76.950519049999997]	5	2011-09-03 00:31:41	4-0 at the half, Stanford SUCKS #GOTERPS
[37.423105329999999, -122.18163729]	5	2011-09-03 01:11:25	I'm at Stanford Driving Range (Campus Drive West, Stanford) http://t.co/oR9dICx
[37.421293210000002, -122.182872]	5	2011-09-03 01:25:17	Learning and Reading :) (@ Stanford Golf Course) http://t.co/ojsarsV
[37.429929950000002, -122.16927767]	5	2011-09-03 01:42:48	I'm at The Stanford Oval (Oval Park, Stanford) [pic]: http://t.co/9AMT7Ol
[39.127222000000003, -94.827179000000001]	5	2011-09-03 01:47:29	I'm at Stanford & Sons Comedy Club (1867 Village W Pkwy., Legends, Kansas City) http://t.co/7Hxzuuo
[37.432504000000002, -122.16364900000001]	5	2011-09-03 02:24:56	センターコートでできるとは思わんかった! (@ Stanford Tennis - Taube Family Stadium) http://t.co/lVrGaKm
[38.784197310000003, -121.26648903]	5	2011-09-03 02:56:10	I'm at L&L Hawaiian Barbecue (9050 Fairway Dr, at Stanford Ranch Rd., Roseville) http://t.co/kVABxEG
[40.045138649999998, -82.854565179999994]	5	2011-09-03 03:01:50	Bout to watch my Terps smash Stanford
[30.245910380000002, -97.775488550000006]	5	2011-09-03 03:43:29	Horned Frogs &gt; Trees RT @darrenrovell: Last college football season, TCU sold more licensed gear than Colorado, Stanford & Boston College
[37.914641500000002, -122.06658745]	5	2011-09-03 04:57:44	@Bay_AllDay so u don't root for any team other than Stanford?
[37.421293210000002, -122.182872]	5	2011-09-03 05:07:49	Learning and Reading :) (@ Stanford Golf Course) http://t.co/sI8wxBk
[25.792039620000001, -80.149379890000006]	5	2011-09-03 05:44:49	Back in the city where @StanfordFball won the 2011 Orange Bowl. Excited for a great 2011-2012 season. Let's go Stanford! #Miami
[37.430006599999999, -122.173421]	5	2011-09-03 13:35:12	I'm at Gates Computer Science Building (353 Serra Mall, at North-South Axis, Stanford) http://t.co/UtyfKsL
